<?xml version="1.0" encoding="UTF-8" standalone="no"?>
<!-- Created with Inkscape (http://www.inkscape.org/) -->

<svg
   xmlns:dc="http://purl.org/dc/elements/1.1/"
   xmlns:cc="http://creativecommons.org/ns#"
   xmlns:rdf="http://www.w3.org/1999/02/22-rdf-syntax-ns#"
   xmlns:svg="http://www.w3.org/2000/svg"
   xmlns="http://www.w3.org/2000/svg"
   xmlns:xlink="http://www.w3.org/1999/xlink"
   xmlns:sodipodi="http://sodipodi.sourceforge.net/DTD/sodipodi-0.dtd"
   xmlns:inkscape="http://www.inkscape.org/namespaces/inkscape"
   id="svg1658"
   sodipodi:docname="inbox.svg"
   inkscape:export-filename="/home/Krug/Projekte/Icon-Sets/set2/png/70a004.png"
   viewBox="0 0 64.000001 64"
   sodipodi:version="0.32"
   inkscape:export-xdpi="72.000000"
   version="1.1"
   inkscape:export-ydpi="72.000000"
   inkscape:version="0.92.4 (5da689c313, 2019-01-14)"
   width="64"
   height="64">
  <defs
     id="defs1660">
    <linearGradient
       id="linearGradient4795">
      <stop
         id="stop4796"
         style="stop-color:#ffffff"
         offset="0" />
      <stop
         id="stop4797"
         style="stop-color:#ffffff;stop-opacity:0"
         offset="1" />
    </linearGradient>
    <linearGradient
       id="linearGradient1728"
       y2="82.828003"
       gradientUnits="userSpaceOnUse"
       y1="51.665001"
       gradientTransform="matrix(1.2005,0,0,0.83296,-10.477,-28.953)"
       x2="105.51"
       x1="-2.6538"
       inkscape:collect="always">
      <stop
         id="stop3407"
         style="stop-color:#000000;stop-opacity:.40476"
         offset="0" />
      <stop
         id="stop3408"
         style="stop-color:#000000;stop-opacity:0"
         offset="1" />
    </linearGradient>
    <radialGradient
       id="radialGradient1814"
       fx="29.636"
       fy="66.082001"
       xlink:href="#linearGradient4795"
       gradientUnits="userSpaceOnUse"
       cy="66.472"
       cx="29.951"
       gradientTransform="matrix(1.6162,0,0,0.61875,-10.477,-28.953)"
       r="20.205"
       inkscape:collect="always" />
    <radialGradient
       id="radialGradient1817"
       fx="42.999001"
       fy="101.38"
       xlink:href="#linearGradient4795"
       gradientUnits="userSpaceOnUse"
       cy="100.44"
       cx="43.250999"
       gradientTransform="matrix(1.3783,0,0,0.72553,-10.477,-28.953)"
       r="30.254999"
       inkscape:collect="always" />
    <radialGradient
       id="radialGradient1820"
       fx="28.292999"
       xlink:href="#linearGradient4795"
       gradientUnits="userSpaceOnUse"
       cy="61.519001"
       cx="28.74"
       gradientTransform="matrix(1.2119,0,0,0.82517,-10.477,-28.953)"
       r="41.548"
       inkscape:collect="always" />
  </defs>
  <sodipodi:namedview
     id="base"
     bordercolor="#666666"
     inkscape:pageshadow="2"
     inkscape:window-y="0"
     pagecolor="#ffffff"
     inkscape:window-maximized="1"
     inkscape:window-width="1920"
     inkscape:zoom="3.61"
     inkscape:window-x="0"
     showgrid="false"
     borderopacity="1.0"
     inkscape:current-layer="svg1658"
     inkscape:cx="47.757283"
     inkscape:cy="66.191805"
     inkscape:window-height="1020"
     inkscape:pageopacity="0.0" />
  <g
     id="g29"
     transform="matrix(0.57484852,0,0,0.57484852,1.0000001,10.028959)">
    <path
       d="m 21.959,2.0512 c -11.126,0 -20.084,8.957 -20.084,20.083 l 5e-4,32.069 c 0,11.126 8.9575,20.081 20.084,20.081 h 63.937 c 11.123,0 20.083,-8.955 20.083,-20.081 v -32.069 c 0,-11.126 -8.96,-20.083 -20.083,-20.083 h -63.937 z"
       inkscape:connector-curvature="0"
       style="fill:#ffc800;fill-rule:evenodd;stroke:#000000;stroke-width:3.75;stroke-linecap:round;stroke-linejoin:round"
       id="rect15188" />
    <path
       d="m 22.651,2.7961 c -11.126,0 -20.083,8.957 -20.083,20.083 v 32.07 c 0,11.126 8.957,20.078 20.083,20.078 h 63.938 c 11.124,0 20.084,-8.952 20.084,-20.078 v -32.07 c 0,-11.126 -8.96,-20.083 -20.084,-20.083 z"
       inkscape:connector-curvature="0"
       style="fill:url(#linearGradient1728);fill-rule:evenodd"
       id="rect1812" />
    <path
       d="m 17.898,5.2031 c -10.92,1.935 -15.962,13.77 -14.375,23.875 0.856,11.222 -1.957,23.126 1.938,33.852 4.832,11.137 18.185,10.567 28.343,10.117 18.785,-0.44 37.746,0.88 56.419,-0.68 10.95,-2.46 14.89,-14.601 13.42,-24.601 -0.96,-11.179 2.29,-23.266 -2.41,-33.762 -6.15,-11.848 -20.892,-8.929 -31.866,-9.207 -17.146,0.257 -34.36,-0.523 -51.469,0.406 z"
       inkscape:connector-curvature="0"
       style="fill:url(#radialGradient1820);fill-rule:evenodd"
       id="rect1819" />
    <path
       d="m 9.666,69.329 c 15.186,-14.242 28.012,-28.957 43.199,-43.2 16.918,13.535 30.059,29.194 46.974,42.728 -1.33,1.577 -5.74,5.747 -10.384,5.667 -23.528,0.16 -44.459,-0.16 -67.986,0 -4.171,-0.32 -9.994,-1.58 -11.803,-5.195 z"
       inkscape:connector-curvature="0"
       style="fill:#ffc800;fill-rule:evenodd;stroke:#000000;stroke-width:3.75;stroke-linecap:round;stroke-linejoin:round"
       id="path17053" />
    <path
       d="M 43.492,37.578 C 33.291,47.993 23.204,58.632 12.648,68.735 c 9.106,5.742 20.804,2.03 31.031,3.092 16.214,-0.34 32.553,0.69 48.684,-0.53 9.09,-2.648 -1.08,-7.423 -4.405,-10.988 C 76.312,49.644 65.367,38.211 53.179,28.141 c -3.229,3.146 -6.458,6.291 -9.687,9.437 z"
       inkscape:connector-curvature="0"
       style="fill:url(#radialGradient1817);fill-rule:evenodd"
       id="path1816" />
    <path
       d="M 10.61,7.7162 C 24.459,17.7892 37.6,27.1522 51.449,37.2242 66.636,26.9162 82.531,17.3162 97.719,7.0082 95.709,0.7532 79.875,2.1312 52.275,2.0512 21.983,1.9622 11.672,0.5172 10.61,7.7162 Z"
       inkscape:connector-curvature="0"
       style="fill:#ffc800;fill-rule:evenodd;stroke:#000000;stroke-width:3.75;stroke-linecap:round;stroke-linejoin:round"
       id="path15810" />
    <path
       d="m 18.242,2.0471 c -8.419,-0.367 -8.115,4.738 -1.046,7.527 10.661,7.7 21.322,15.399 31.983,23.098 14.448,-9.437 28.896,-18.875 43.344,-28.313 -11.75,-4.289 -24.821,-1.703 -37.125,-2.424 -12.387,0.07 -24.772,-0.344 -37.156,0.112 z"
       inkscape:connector-curvature="0"
       style="fill:url(#radialGradient1814);fill-rule:evenodd"
       id="path1813" />
  </g>
  <metadata
     id="metadata21">
    <rdf:RDF>
      <cc:Work>
        <dc:format>image/svg+xml</dc:format>
        <dc:type
           rdf:resource="http://purl.org/dc/dcmitype/StillImage" />
        <cc:license
           rdf:resource="http://creativecommons.org/publicdomain/zero/1.0/" />
        <dc:publisher>
          <cc:Agent
             rdf:about="http://openclipart.org/">
            <dc:title>Openclipart</dc:title>
          </cc:Agent>
        </dc:publisher>
        <dc:title></dc:title>
      </cc:Work>
      <cc:License
         rdf:about="http://creativecommons.org/publicdomain/zero/1.0/">
        <cc:permits
           rdf:resource="http://creativecommons.org/ns#Reproduction" />
        <cc:permits
           rdf:resource="http://creativecommons.org/ns#Distribution" />
        <cc:permits
           rdf:resource="http://creativecommons.org/ns#DerivativeWorks" />
      </cc:License>
    </rdf:RDF>
  </metadata>
</svg>
