<?xml version="1.0" encoding="UTF-8" standalone="no"?>
<!-- Created with Inkscape (http://www.inkscape.org/) -->

<svg
   xmlns:dc="http://purl.org/dc/elements/1.1/"
   xmlns:cc="http://creativecommons.org/ns#"
   xmlns:rdf="http://www.w3.org/1999/02/22-rdf-syntax-ns#"
   xmlns:svg="http://www.w3.org/2000/svg"
   xmlns="http://www.w3.org/2000/svg"
   xmlns:sodipodi="http://sodipodi.sourceforge.net/DTD/sodipodi-0.dtd"
   xmlns:inkscape="http://www.inkscape.org/namespaces/inkscape"
   width="64"
   height="64"
   viewBox="0 0 16.933333 16.933333"
   version="1.1"
   id="svg529"
   inkscape:version="0.92.4 (5da689c313, 2019-01-14)"
   sodipodi:docname="search-folder.svg">
  <defs
     id="defs523">
    <linearGradient
       y2="123.897"
       y1="20.716999"
       x2="63.9972"
       x1="63.9972"
       gradientUnits="userSpaceOnUse"
       id="SVGID_5_">
      <stop
         id="stop47"
         style="stop-color:#FFC107"
         offset="0" />
      <stop
         id="stop49"
         style="stop-color:#F1AF06"
         offset="0.1894" />
      <stop
         id="stop51"
         style="stop-color:#CD7F02"
         offset="0.5692" />
      <stop
         id="stop53"
         style="stop-color:#BD6A00"
         offset="0.7232" />
    </linearGradient>
    <linearGradient
       y2="124.0765"
       y1="40.175201"
       x2="68.377403"
       x1="68.377403"
       gradientUnits="userSpaceOnUse"
       id="SVGID_7_">
      <stop
         id="stop81"
         style="stop-color:#FFEE58"
         offset="0" />
      <stop
         id="stop83"
         style="stop-color:#FFEA54"
         offset="0.2852" />
      <stop
         id="stop85"
         style="stop-color:#FDDC48"
         offset="0.5961" />
      <stop
         id="stop87"
         style="stop-color:#FCC733"
         offset="0.9179" />
      <stop
         id="stop89"
         style="stop-color:#FBC02D"
         offset="1" />
    </linearGradient>
    <linearGradient
       id="SVGID_1_"
       gradientTransform="matrix(0.7071,-0.7071,0.7071,0.7071,-29.4626,68.9971)"
       gradientUnits="userSpaceOnUse"
       x1="69.8452"
       x2="69.8452"
       y1="72.219803"
       y2="82.027">
      <stop
         offset="0"
         style="stop-color:#EEEEEE"
         id="stop2" />
      <stop
         offset="1"
         style="stop-color:#9E9E9E"
         id="stop4" />
    </linearGradient>
    <radialGradient
       id="SVGID_2_"
       cx="43.358299"
       cy="4.3333001"
       gradientTransform="matrix(1.0004,0,0,1,-0.0267,0)"
       gradientUnits="userSpaceOnUse"
       r="82.0103">
      <stop
         offset="0"
         style="stop-color:#E0E0E0"
         id="stop13" />
      <stop
         offset="0.2274"
         style="stop-color:#DBDBDB"
         id="stop15" />
      <stop
         offset="0.4939"
         style="stop-color:#CDCDCD"
         id="stop17" />
      <stop
         offset="0.7789"
         style="stop-color:#B5B5B5"
         id="stop19" />
      <stop
         offset="1"
         style="stop-color:#9E9E9E"
         id="stop21" />
    </radialGradient>
    <radialGradient
       id="SVGID_3_"
       cx="83.25"
       cy="72.5"
       gradientUnits="userSpaceOnUse"
       r="51.599998">
      <stop
         offset="0"
         style="stop-color:#FFA726"
         id="stop28" />
      <stop
         offset="0.0404"
         style="stop-color:#FFA623"
         id="stop30" />
      <stop
         offset="0.5168"
         style="stop-color:#FF9800"
         id="stop32" />
      <stop
         offset="1"
         style="stop-color:#FB8C00"
         id="stop34" />
    </radialGradient>
    <radialGradient
       id="SVGID_4_"
       cx="23.025"
       cy="23.5"
       gradientUnits="userSpaceOnUse"
       r="65.077797">
      <stop
         offset="0"
         style="stop-color:#B3E5FC"
         id="stop47-3" />
      <stop
         offset="0.1696"
         style="stop-color:#ADE3FC"
         id="stop49-6" />
      <stop
         offset="0.3927"
         style="stop-color:#9DDDFB"
         id="stop51-7" />
      <stop
         offset="0.6456"
         style="stop-color:#81D4FA"
         id="stop53-5" />
      <stop
         offset="0.9186"
         style="stop-color:#5CC7F8"
         id="stop55" />
      <stop
         offset="1"
         style="stop-color:#4FC3F7"
         id="stop57" />
    </radialGradient>
    <radialGradient
       id="SVGID_5_-3"
       cx="77.191704"
       cy="74.666702"
       gradientTransform="matrix(1.0004,0,0,1,-0.0267,0)"
       gradientUnits="userSpaceOnUse"
       r="12.8863">
      <stop
         offset="0"
         style="stop-color:#E0E0E0"
         id="stop68" />
      <stop
         offset="1"
         style="stop-color:#9E9E9E"
         id="stop70" />
    </radialGradient>
  </defs>
  <sodipodi:namedview
     id="base"
     pagecolor="#ffffff"
     bordercolor="#666666"
     borderopacity="1.0"
     inkscape:pageopacity="0.0"
     inkscape:pageshadow="2"
     inkscape:zoom="2"
     inkscape:cx="-222.25"
     inkscape:cy="-31.428571"
     inkscape:document-units="mm"
     inkscape:current-layer="layer1"
     showgrid="false"
     inkscape:window-width="1920"
     inkscape:window-height="1020"
     inkscape:window-x="0"
     inkscape:window-y="0"
     inkscape:window-maximized="1"
     units="px" />
  <metadata
     id="metadata526">
    <rdf:RDF>
      <cc:Work
         rdf:about="">
        <dc:format>image/svg+xml</dc:format>
        <dc:type
           rdf:resource="http://purl.org/dc/dcmitype/StillImage" />
        <dc:title></dc:title>
      </cc:Work>
    </rdf:RDF>
  </metadata>
  <g
     inkscape:label="Layer 1"
     inkscape:groupmode="layer"
     id="layer1"
     transform="translate(0,-280.06667)">
    <g
       id="g138"
       transform="matrix(0.26458333,0,0,0.26458333,1.0666667e-7,218.41876)">
      <g
         id="g521"
         transform="matrix(0.50462574,0,0,0.50462574,-0.29604736,228.455)">
        <path
           id="path2"
           style="fill:#946134"
           d="M 90.14,34.41 H 63.21 c -1.96,0 -3.88,-1.59 -4.3,-3.55 l -1.42,-6.7 c -0.42,-1.96 0.83,-3.55 2.79,-3.55 h 26.93 c 1.96,0 3.88,1.59 4.3,3.55 l 1.42,6.7 c 0.42,1.96 -0.83,3.55 -2.79,3.55 z"
           inkscape:connector-curvature="0" />
        <path
           id="path4"
           style="fill:#ff8f00"
           d="M 66.04,34.41 H 39.11 c -1.96,0 -3.88,-1.59 -4.3,-3.55 l -1.42,-6.7 c -0.42,-1.96 0.83,-3.55 2.79,-3.55 h 26.93 c 1.96,0 3.88,1.59 4.3,3.55 l 1.42,6.7 c 0.42,1.96 -0.83,3.55 -2.79,3.55 z"
           inkscape:connector-curvature="0" />
        <path
           id="path56"
           style="fill:url(#SVGID_5_)"
           d="m 7.36,20.61 c -1.48,0.16 -2.72,1.56 -2.71,3.05 -0.09,39.64 -0.1,54.85 -0.1,97.52 0,1.6 1.45,3.05 3.05,3.05 l 114.61,-1.54 c 0,0 1.25,-80.89 1.23,-85.45 -0.01,-3.54 -2.92,-6.43 -6.45,-6.43 h -71.4 c -1.44,0 -2.73,-0.91 -3.21,-2.27 -0.6,-1.7 -1.46,-4.1 -2.24,-6.28 C 39.55,20.61 37.11,20.61 36.47,20.62 26.28,20.61 17.52,20.61 7.36,20.61 Z"
           inkscape:connector-curvature="0" />
        <path
           id="path92"
           style="fill:url(#SVGID_7_)"
           d="M 119.45,124.22 H 17.31 c -2.21,0 -4,-1.79 -4,-4 V 44.51 c 0,-2.21 1.79,-4 4,-4 h 102.14 c 2.21,0 4,1.79 4,4 v 75.71 c 0,2.21 -1.79,4 -4,4 z"
           inkscape:connector-curvature="0" />
        <path
           inkscape:connector-curvature="0"
           d="m 7.75,23.58 v 0 0 m 79.46,0.03 c 0.54,0 1.24,0.6 1.36,1.17 l 1.41,6.64 c 0.29,1.39 1.52,2.38 2.93,2.38 h 24.06 c 1.9,0 3.45,1.54 3.45,3.44 0,0.66 -0.02,3.06 -0.08,7.13 0,0.19 0.01,0.38 0.05,0.56 0.02,0.14 0.04,0.24 0.04,0.3 v 74.26 c 0,0.53 -0.25,0.92 -0.46,1.15 -0.01,0.01 -0.02,0.02 -0.03,0.04 -0.21,0.22 -0.62,0.54 -1.23,0.54 H 15.93 c -0.12,0 -0.24,-0.01 -0.35,-0.04 -0.2,-0.04 -0.4,-0.06 -0.61,-0.06 -0.01,0 -0.03,0 -0.04,0 l -7.27,0.1 c -0.04,-0.02 -0.08,-0.07 -0.1,-0.1 0,-42.44 0.01,-57.58 0.1,-97.43 0.01,-0.02 0.04,-0.05 0.06,-0.08 h 28.46 c 0.02,0 0.05,0 0.07,0 h 24.04 2.83 24.09 m 0,-3 h -24.1 -2.83 -24.1 c 0,0 -0.01,0 -0.01,0 -10.06,0 -18.75,0 -28.8,0 -1.48,0.16 -2.72,1.56 -2.71,3.05 -0.09,39.64 -0.1,54.85 -0.1,97.52 0,1.6 1.45,3.05 3.05,3.05 l 7.37,-0.1 c 0.31,0.06 0.63,0.1 0.96,0.1 h 102.79 c 1.38,0 2.61,-0.6 3.47,-1.54 h 0.01 c 0,0 0,-0.01 0,-0.02 0.76,-0.84 1.24,-1.94 1.24,-3.17 V 45.24 c 0,-0.28 -0.04,-0.56 -0.08,-0.83 0.05,-3.87 0.08,-6.46 0.08,-7.18 C 123.44,33.69 120.53,30.8 117,30.8 H 92.92 l -1.41,-6.64 c -0.42,-1.96 -2.34,-3.55 -4.3,-3.55 z"
           style="fill:#424242"
           id="path94" />
      </g>
      <g
         id="g79"
         transform="matrix(0.24999479,0,0,0.24999479,16.000646,251.6465)">
        <linearGradient
           y2="82.027"
           y1="72.219803"
           x2="69.8452"
           x1="69.8452"
           gradientUnits="userSpaceOnUse"
           gradientTransform="matrix(0.7071,-0.7071,0.7071,0.7071,-29.4626,68.9971)"
           id="linearGradient125">
          <stop
             id="stop121"
             style="stop-color:#EEEEEE"
             offset="0" />
          <stop
             id="stop123"
             style="stop-color:#9E9E9E"
             offset="1" />
        </linearGradient>
        <polygon
           id="polygon7"
           style="fill:url(#SVGID_1_)"
           points="90.33,98.58 56.54,64.6 64.99,56.11 98.78,90.08 " />
        <g
           id="g11"
           style="opacity:0.2">
          <path
             id="path9"
             style="fill:#424242"
             d="m 64.98,60.37 29.56,29.72 -4.22,4.24 -29.56,-29.72 4.22,-4.24 m 0,-4.26 -8.45,8.49 33.79,33.98 8.45,-8.49 z"
             inkscape:connector-curvature="0" />
        </g>
        <g
           id="g26">
          <radialGradient
             r="82.0103"
             gradientUnits="userSpaceOnUse"
             gradientTransform="matrix(1.0004,0,0,1,-0.0267,0)"
             cy="4.3333001"
             cx="43.358299"
             id="radialGradient140">
            <stop
               id="stop130"
               style="stop-color:#E0E0E0"
               offset="0" />
            <stop
               id="stop132"
               style="stop-color:#DBDBDB"
               offset="0.2274" />
            <stop
               id="stop134"
               style="stop-color:#CDCDCD"
               offset="0.4939" />
            <stop
               id="stop136"
               style="stop-color:#B5B5B5"
               offset="0.7789" />
            <stop
               id="stop138"
               style="stop-color:#9E9E9E"
               offset="1" />
          </radialGradient>
          <path
             id="path24"
             style="fill:url(#SVGID_2_)"
             d="m 73.67,16.02 c 15.94,16.02 15.94,42 0,58.03 -15.94,16.03 -41.78,16.02 -57.72,0 -15.94,-16.02 -15.94,-42 0,-58.03 15.94,-16.03 41.78,-16.03 57.72,0 z"
             inkscape:connector-curvature="0" />
        </g>
        <radialGradient
           r="51.599998"
           gradientUnits="userSpaceOnUse"
           cy="72.5"
           cx="83.25"
           id="radialGradient152">
          <stop
             id="stop144"
             style="stop-color:#FFA726"
             offset="0" />
          <stop
             id="stop146"
             style="stop-color:#FFA623"
             offset="0.0404" />
          <stop
             id="stop148"
             style="stop-color:#FF9800"
             offset="0.5168" />
          <stop
             id="stop150"
             style="stop-color:#FB8C00"
             offset="1" />
        </radialGradient>
        <path
           id="path37"
           style="fill:url(#SVGID_3_)"
           d="M 108.32,89.31 C 101.84,82.79 94.77,78.21 88.84,76.25 87.22,75.71 85.77,74.76 84.56,73.54 l -1.78,-1.79 -10.75,10.8 1.78,1.79 c 1.21,1.21 2.16,2.67 2.69,4.3 1.96,5.96 6.51,13.06 12.99,19.58 7.31,7.35 15.36,12.23 21.69,13.69 l 0.88,0.89 c 1.59,1.59 4.16,1.59 5.74,0 l 1.59,-1.6 c 0.37,-0.24 0.71,-0.51 1.02,-0.81 0.31,-0.31 0.58,-0.65 0.81,-1.02 l 1.59,-1.6 c 1.59,-1.59 1.59,-4.18 0,-5.77 l -0.88,-0.89 c -1.45,-6.35 -6.3,-14.45 -13.61,-21.8 z"
           inkscape:connector-curvature="0" />
        <g
           id="g41"
           style="opacity:0.2">
          <path
             id="path39"
             style="fill:#424242"
             d="m 44.81,7 c 10.1,0 19.59,3.95 26.73,11.13 14.75,14.83 14.75,38.97 0,53.8 C 64.4,79.11 54.91,83.06 44.81,83.06 34.71,83.06 25.22,79.11 18.08,71.93 3.33,57.1 3.33,32.96 18.08,18.13 25.22,10.95 34.72,7 44.81,7 m 0,-3 C 34.37,4 23.92,8.01 15.95,16.02 c -15.94,16.02 -15.94,42 0,58.03 7.97,8.01 18.41,12.02 28.86,12.02 10.45,0 20.89,-4.01 28.86,-12.02 15.94,-16.02 15.94,-42 0,-58.03 C 65.7,8.01 55.26,4 44.81,4 Z"
             inkscape:connector-curvature="0" />
        </g>
        <g
           id="g45"
           style="opacity:0.2">
          <path
             id="path43"
             style="fill:#424242"
             d="m 82.78,76 c 1.51,1.42 3.26,2.49 5.11,3.1 5.72,1.9 12.39,6.39 18.3,12.33 6.64,6.68 11.44,14.29 12.82,20.35 l 0.19,0.84 0.61,0.61 0.88,0.89 c 0.42,0.43 0.42,1.12 0,1.54 l -1.59,1.6 -0.23,0.23 -0.17,0.28 c -0.13,0.2 -0.26,0.37 -0.41,0.51 -0.15,0.15 -0.31,0.28 -0.51,0.41 l -0.27,0.18 -0.23,0.23 -1.59,1.6 c -0.27,0.27 -0.58,0.31 -0.74,0.31 -0.16,0 -0.48,-0.04 -0.74,-0.31 l -0.88,-0.89 -0.61,-0.61 -0.84,-0.19 C 105.85,117.62 98.29,112.81 91.65,106.13 85.74,100.19 81.27,93.48 79.38,87.73 78.77,85.87 77.7,84.09 76.28,82.58 L 82.78,76 m -0.01,-4.25 -10.75,10.8 1.78,1.79 c 1.21,1.21 2.16,2.67 2.69,4.3 1.96,5.96 6.51,13.06 12.99,19.58 7.31,7.35 15.36,12.23 21.69,13.69 l 0.88,0.89 c 0.79,0.8 1.83,1.2 2.87,1.2 1.04,0 2.08,-0.4 2.87,-1.2 l 1.59,-1.6 c 0.37,-0.24 0.71,-0.51 1.02,-0.81 0.31,-0.31 0.58,-0.65 0.81,-1.02 l 1.59,-1.6 c 1.59,-1.59 1.59,-4.18 0,-5.77 l -0.88,-0.89 c -1.45,-6.36 -6.3,-14.45 -13.61,-21.8 -6.48,-6.52 -13.55,-11.1 -19.48,-13.06 -1.62,-0.54 -3.07,-1.49 -4.28,-2.71 z"
             inkscape:connector-curvature="0" />
        </g>
        <g
           id="g62">
          <radialGradient
             r="65.077797"
             gradientUnits="userSpaceOnUse"
             cy="23.5"
             cx="23.025"
             id="radialGradient171">
            <stop
               id="stop159"
               style="stop-color:#B3E5FC"
               offset="0" />
            <stop
               id="stop161"
               style="stop-color:#ADE3FC"
               offset="0.1696" />
            <stop
               id="stop163"
               style="stop-color:#9DDDFB"
               offset="0.3927" />
            <stop
               id="stop165"
               style="stop-color:#81D4FA"
               offset="0.6456" />
            <stop
               id="stop167"
               style="stop-color:#5CC7F8"
               offset="0.9186" />
            <stop
               id="stop169"
               style="stop-color:#4FC3F7"
               offset="1" />
          </radialGradient>
          <path
             id="path60"
             style="fill:url(#SVGID_4_)"
             d="m 68.09,21.46 c 12.9,12.97 12.9,34 0,46.98 -12.9,12.98 -33.82,12.97 -46.72,0 -12.9,-12.97 -12.9,-34 0,-46.98 12.9,-12.98 33.82,-12.97 46.72,0 z"
             inkscape:connector-curvature="0" />
        </g>
        <g
           id="g66"
           style="opacity:0.2">
          <path
             id="path64"
             style="fill:#039be5"
             d="m 44.73,14.73 c 8.02,0 15.56,3.14 21.23,8.84 11.72,11.78 11.72,30.96 0,42.74 -5.67,5.7 -13.21,8.84 -21.23,8.84 -8.02,0 -15.56,-3.14 -21.23,-8.84 -11.72,-11.78 -11.72,-30.96 0,-42.74 5.66,-5.7 13.21,-8.84 21.23,-8.84 m 0,-3 c -8.46,0 -16.91,3.24 -23.36,9.73 -12.9,12.97 -12.9,34 0,46.98 6.45,6.49 14.91,9.73 23.36,9.73 8.45,0 16.91,-3.24 23.36,-9.73 12.9,-12.97 12.9,-34 0,-46.98 -6.45,-6.49 -14.91,-9.73 -23.36,-9.73 z"
             inkscape:connector-curvature="0" />
        </g>
        <radialGradient
           r="12.8863"
           gradientUnits="userSpaceOnUse"
           gradientTransform="matrix(1.0004,0,0,1,-0.0267,0)"
           cy="74.666702"
           cx="77.191704"
           id="radialGradient181">
          <stop
             id="stop177"
             style="stop-color:#E0E0E0"
             offset="0" />
          <stop
             id="stop179"
             style="stop-color:#9E9E9E"
             offset="1" />
        </radialGradient>
        <path
           id="path73"
           style="fill:url(#SVGID_5_-3)"
           d="M 87.19,77.1 77.2,87.15 c -1.13,1.14 -2.96,1.14 -4.09,0 l -0.96,-0.97 c -1.13,-1.14 -1.13,-2.98 0,-4.11 l 9.99,-10.05 c 1.13,-1.14 2.96,-1.14 4.09,0 l 0.96,0.97 c 1.13,1.14 1.13,2.98 0,4.11 z"
           inkscape:connector-curvature="0" />
        <g
           id="g77"
           style="opacity:0.2">
          <path
             id="path75"
             style="fill:#424242"
             d="m 84.18,73.17 c 0.14,0 0.4,0.03 0.63,0.26 l 0.96,0.97 c 0.35,0.36 0.35,0.93 0,1.29 L 75.78,85.74 C 75.55,85.97 75.29,86 75.15,86 c -0.14,0 -0.4,-0.03 -0.63,-0.26 l -0.96,-0.97 c -0.35,-0.36 -0.35,-0.93 0,-1.29 l 9.99,-10.05 c 0.23,-0.22 0.5,-0.26 0.63,-0.26 m 0,-2 c -0.74,0 -1.48,0.28 -2.04,0.85 l -9.99,10.05 c -1.13,1.14 -1.13,2.98 0,4.11 l 0.96,0.97 c 0.56,0.57 1.3,0.85 2.04,0.85 0.74,0 1.48,-0.28 2.04,-0.85 L 87.18,77.1 c 1.13,-1.14 1.13,-2.98 0,-4.11 l -0.96,-0.97 c -0.56,-0.56 -1.3,-0.85 -2.04,-0.85 z"
             inkscape:connector-curvature="0" />
        </g>
      </g>
    </g>
  </g>
</svg>
